{
  "centros": [
    {
      "distanciaPromedio": 0.0,
      "_latitud": -34.505213,
      "_longitud": -58.675616
    },
    {
      "distanciaPromedio": 0.0,
      "_latitud": -34.532804,
      "_longitud": -58.708631
    },
    {
      "distanciaPromedio": 0.0,
      "_latitud": -34.53273,
      "_longitud": -58.725402
    },
    {
      "distanciaPromedio": 0.0,
      "_latitud": -34.504941,
      "_longitud": -58.720703
    }
  ]
}